{
	"info": {
		"_postman_id": "5420b699-d296-4e4d-9c6e-58184d93c2e8",
		"name": "Causea",
		"schema": "https://schema.getpostman.com/json/collection/v2.1.0/collection.json"
	},
	"item": [
		{
			"name": "Fetch Access Token",
			"event": [
				{
					"listen": "test",
					"script": {
						"exec": [
							"var jsonData = pm.response.json();\r",
							"pm.environment.set(\"access_token\", \"Bearer \" + jsonData.access_token);\r",
							"\r",
							"pm.test(\"Successful POST request\", function () {\r",
							"    pm.expect(pm.response.code).to.be.oneOf([200, 201, 202]);\r",
							"});"
						],
						"type": "text/javascript"
					}
				}
			],
			"request": {
				"method": "POST",
				"header": [],
				"body": {
					"mode": "urlencoded",
					"urlencoded": [
						{
							"key": "grant_type",
							"value": "password",
							"type": "text"
						},
						{
							"key": "client_id",
							"value": "{{client_id}}",
							"type": "text"
						},
						{
							"key": "client_secret",
							"value": "",
							"description": "Required for confidential clients.",
							"type": "text",
							"disabled": true
						},
						{
							"key": "audience",
							"value": "https://buy-it-api.igorski.co",
							"type": "text"
						},
						{
							"key": "username",
							"value": "{{user_one}}",
							"type": "text"
						},
						{
							"key": "password",
							"value": "{{user_one_pass}}",
							"type": "text"
						},
						{
							"key": "scope",
							"value": "openid",
							"type": "text"
						}
					]
				},
				"url": {
					"raw": "https://igorski.eu.auth0.com/oauth/token",
					"protocol": "https",
					"host": [
						"igorski",
						"eu",
						"auth0",
						"com"
					],
					"path": [
						"oauth",
						"token"
					]
				},
				"description": "Fetches a token from Auth0"
			},
			"response": []
		},
		{
			"name": "User - Current (ID = 2)",
			"request": {
				"method": "GET",
				"header": [
					{
						"key": "Authorization",
						"type": "text",
						"value": "{{access_token}}"
					}
				],
				"url": {
					"raw": "{{causea_url}}/api/user",
					"host": [
						"{{causea_url}}"
					],
					"path": [
						"api",
						"user"
					]
				}
			},
			"response": []
		},
		{
			"name": "User - ID 1",
			"request": {
				"method": "GET",
				"header": [
					{
						"key": "Authorization",
						"type": "text",
						"value": "{{access_token}}"
					}
				],
				"url": {
					"raw": "{{causea_url}}/api/user/1",
					"host": [
						"{{causea_url}}"
					],
					"path": [
						"api",
						"user",
						"1"
					]
				}
			},
			"response": []
		},
		{
			"name": "User - Register",
			"request": {
				"method": "POST",
				"header": [
					{
						"key": "Authorization",
						"value": "{{access_token}}",
						"type": "text"
					}
				],
				"url": {
					"raw": "{{causea_url}}/api/user",
					"host": [
						"{{causea_url}}"
					],
					"path": [
						"api",
						"user"
					]
				}
			},
			"response": []
		},
		{
			"name": "Donation - By ID",
			"request": {
				"auth": {
					"type": "noauth"
				},
				"method": "GET",
				"header": [
					{
						"key": "Content-Type",
						"name": "Content-Type",
						"type": "text",
						"value": "application/json"
					},
					{
						"key": "Authorization",
						"type": "text",
						"value": "{{access_token}}"
					}
				],
				"url": {
					"raw": "{{causea_url}}/api/campaign/donation/1",
					"host": [
						"{{causea_url}}"
					],
					"path": [
						"api",
						"campaign",
						"donation",
						"1"
					]
				}
			},
			"response": []
		},
		{
			"name": "Donation - All",
			"request": {
				"auth": {
					"type": "noauth"
				},
				"method": "GET",
				"header": [
					{
						"key": "Content-Type",
						"name": "Content-Type",
						"type": "text",
						"value": "application/json"
					},
					{
						"key": "Authorization",
						"type": "text",
						"value": "{{access_token}}"
					}
				],
				"url": {
					"raw": "{{causea_url}}/api/campaign/donation",
					"host": [
						"{{causea_url}}"
					],
					"path": [
						"api",
						"campaign",
						"donation"
					]
				}
			},
			"response": []
		},
		{
			"name": "Like - Campaign 1",
			"request": {
				"method": "POST",
				"header": [
					{
						"key": "Authorization",
						"type": "text",
						"value": "{{access_token}}"
					}
				],
				"url": {
					"raw": "{{causea_url}}/api/campaign/1/like",
					"host": [
						"{{causea_url}}"
					],
					"path": [
						"api",
						"campaign",
						"1",
						"like"
					]
				}
			},
			"response": []
		},
		{
			"name": "Get Donation by user Id",
			"request": {
				"auth": {
					"type": "noauth"
				},
				"method": "GET",
				"header": [
					{
						"key": "Content-Type",
						"name": "Content-Type",
						"type": "text",
						"value": "application/json"
					},
					{
						"key": "Authorization",
						"type": "text",
						"value": "{{access_token}}"
					}
				],
				"url": {
					"raw": "{{causea_url}}/api/campaign/donation/?userId=1",
					"host": [
						"{{causea_url}}"
					],
					"path": [
						"api",
						"campaign",
						"donation",
						""
					],
					"query": [
						{
							"key": "userId",
							"value": "1"
						}
					]
				}
			},
			"response": []
		},
		{
			"name": "Delete Like",
			"request": {
				"method": "DELETE",
				"header": [
					{
						"key": "Authorization",
						"value": "{{access_token}}",
						"type": "text"
					}
				],
				"url": {
					"raw": "{{causea_url}}/api/campaign/1/like",
					"host": [
						"{{causea_url}}"
					],
					"path": [
						"api",
						"campaign",
						"1",
						"like"
					]
				}
			},
			"response": []
		},
		{
			"name": "Add Donation Campaign",
			"event": [
				{
					"listen": "test",
					"script": {
						"exec": [
							"var jsonData = JSON.parse(responseBody);\r",
							"postman.setEnvironmentVariable(\"campaign_id\", jsonData.id);"
						],
						"type": "text/javascript"
					}
				}
			],
			"request": {
				"auth": {
					"type": "noauth"
				},
				"method": "POST",
				"header": [
					{
						"key": "Content-Type",
						"name": "Content-Type",
						"value": "application/json",
						"type": "text"
					},
					{
						"key": "Authorization",
						"value": "{{access_token}}",
						"type": "text"
					}
				],
				"body": {
					"mode": "raw",
					"raw": "{\n\t\"title\" : \"New campaign\",\n\t\"description\" : \"Sobiranje pari za lecenje\",\n\t\"startDate\" : \"2019-09-12\",\n\t\"endDate\" : \"2019-10-01\",\n\t\"target\": 2000\n}"
				},
				"url": {
					"raw": "{{causea_url}}/api/campaign/donation/",
					"host": [
						"{{causea_url}}"
					],
					"path": [
						"api",
						"campaign",
						"donation",
						""
					]
				}
			},
			"response": []
		},
		{
			"name": "Comment",
			"event": [
				{
					"listen": "test",
					"script": {
						"exec": [
							""
						],
						"type": "text/javascript"
					}
				}
			],
			"request": {
				"auth": {
					"type": "noauth"
				},
				"method": "POST",
				"header": [
					{
						"key": "Content-Type",
						"name": "Content-Type",
						"type": "text",
						"value": "application/json"
					},
					{
						"key": "Authorization",
						"type": "text",
						"value": "{{access_token}}"
					}
				],
				"body": {
					"mode": "raw",
					"raw": "{\n\t\"text\": \"Support!\",\n\t\"date\": \"2019-08-11\"\n}"
				},
				"url": {
					"raw": "http://localhost:8283/api/campaign/1/comment?page=0&limit=10",
					"protocol": "http",
					"host": [
						"localhost"
					],
					"port": "8283",
					"path": [
						"api",
						"campaign",
						"1",
						"comment"
					],
					"query": [
						{
							"key": "page",
							"value": "0"
						},
						{
							"key": "limit",
							"value": "10"
						}
					]
				}
			},
			"response": []
		},
		{
			"name": "Comment",
			"event": [
				{
					"listen": "test",
					"script": {
						"exec": [
							""
						],
						"type": "text/javascript"
					}
				}
			],
			"request": {
				"auth": {
					"type": "noauth"
				},
				"method": "POST",
				"header": [
					{
						"key": "Content-Type",
						"name": "Content-Type",
						"type": "text",
						"value": "application/json"
					},
					{
						"key": "Authorization",
						"type": "text",
						"value": "{{access_token}}"
					}
				],
				"body": {
					"mode": "raw",
					"raw": "{\n\t\"text\": \"Support!\",\n\t\"date\": \"2019-08-11\"\n}"
				},
				"url": {
					"raw": "http://localhost:8283/api/campaign/1/comment?page=0&limit=10",
					"protocol": "http",
					"host": [
						"localhost"
					],
					"port": "8283",
					"path": [
						"api",
						"campaign",
						"1",
						"comment"
					],
					"query": [
						{
							"key": "page",
							"value": "0"
						},
						{
							"key": "limit",
							"value": "10"
						}
					]
				}
			},
			"response": []
		},
		{
			"name": "Get All Comments",
			"protocolProfileBehavior": {
				"disableBodyPruning": true
			},
			"request": {
				"method": "GET",
				"header": [
					{
						"key": "Authorization",
						"type": "text",
						"value": "{{access_token}}"
					}
				],
				"body": {
					"mode": "raw",
					"raw": "{\n\t\"text\": \"Wooooo hoooo!!!\"\n}",
					"options": {
						"raw": {
							"language": "json"
						}
					}
				},
				"url": {
					"raw": "http://localhost:8283/api/campaign/1/comment?page=0&limit=10",
					"protocol": "http",
					"host": [
						"localhost"
					],
					"port": "8283",
					"path": [
						"api",
						"campaign",
						"1",
						"comment"
					],
					"query": [
						{
							"key": "page",
							"value": "0"
						},
						{
							"key": "limit",
							"value": "10"
						}
					]
				}
			},
			"response": []
		}
	]
}